*Heading
*Preprint, echo=NO, model=NO, history=NO, contact=NO
**
** PARTS
**
*Part, name=Part-1
*Node
1 ,0  ,0  ,0
2 ,1  ,0  ,0
3 ,0.5,0.5,0
4 ,0  ,1  ,0
5 ,1  ,1  ,0
6 ,0.5,0  ,0.5
7 ,0  ,0.5,0.5
8 ,1  ,0.5,0.5
9 ,0.5,1  ,0.5
10,0  ,0  ,1
11,1  ,0  ,1
12,0.5,0.5,1
13,0  ,1  ,1
14,1  ,1  ,1
*Element, type=T3D2
1,1,3
2,2,3
3,4,3
4,5,3
5,6,7
6,6,8
7,9,7
8,9,8
9,10,12
10,11,12
11,13,12
12,14,12
13,1,6
14,2,6
15,10,6
16,11,6
17,3,7
18,3,8
19,12,7
20,12,8
21,4,9
22,5,9
23,13,9
24,14,9
25,1,7
26,3,6
27,2,8
28,4,7
29,3,9
30,5,8
31,10,7
32,12,6
33,11,8
34,13,7
35,12,9
36,14,8
*ELSET, elset=Set-1,generate
1,36
** Section: Section-1
*Solid Section, elset=Set-1, material=Material-1
0.01,
*End Part
**  
**
** ASSEMBLY
**
*Assembly, name=Assembly
**  
*Instance, name=Part-1-1, part=Part-1
*End Instance
*NSET, nset=xMin,   instance=Part-1-1
1, 4, 7, 10, 13
*NSET, nset=xMax,   instance=Part-1-1
2, 5, 8, 11, 14 
*NSET, nset=yMin,  instance=Part-1-1
1, 2, 6, 10, 11
*NSET, nset=yMax,   instance=Part-1-1
4, 5, 9, 13, 14
*NSET, nset=zMin,   instance=Part-1-1
1 , 2, 3, 4, 5
*NSET, nset=zMax,   instance=Part-1-1
10, 11, 12, 13, 14
*End Assembly
** 
** MATERIALS
** 
*Material, name=Material-1
*Density
.118,
*Elastic
1780,0.3
** ----------------------------------------------------------------
** 
** STEP: Step-1
** 
*Step, name=Step-1, nlgeom=YES
*Dynamic, Explicit, scale factor=0.001
, 0.05
*Bulk Viscosity
  0.06, 1.2
**
** Ampitude table
**
*AMPLITUDE, NAME=loadcurve, DEFINITION=TABULAR
0.0, 0.0
0.05, 1.0
** 
** BOUNDARY CONDITIONS
** 
** Name: BC-1 Type: Velocity/Angular velocity
*Boundary, type=VELOCITY
xMin, 1, 1
** Name: BC-2 Type: Velocity/Angular velocity
*Boundary, type=VELOCITY
yMin, 2, 2
*Boundary, type=VELOCITY
yMax, 2, 2
** Name: BC-3 Type: Velocity/Angular velocity
*Boundary, type=VELOCITY
zMin, 3, 3
*Boundary, type=VELOCITY
zMax, 3, 3
** Name: BC-4 Type: Velocity/Angular velocity
*Boundary, type=VELOCITY, amplitude=loadcurve
xMax, 1, 1, 8.0
** 
** OUTPUT REQUESTS
** 
*Restart, write, number interval=1, time marks=NO
** 
** FIELD OUTPUT: F-Output-1
** 
*Output, field, variable=PRESELECT
*End Step
